…
Let’s start with a for loop.

``` r
output = vector("list", length = 100)

for (i in 1:100) {
  
  output[[i]] = sim_mean_sd(sample_size = 30)
  
}

bind_rows(output)
```

    ## # A tibble: 100 x 2
    ##     mean    sd
    ##    <dbl> <dbl>
    ##  1  3.78  3.91
    ##  2  2.43  3.46
    ##  3  3.38  4.16
    ##  4  2.05  3.01
    ##  5  1.64  3.95
    ##  6  1.67  4.60
    ##  7  3.21  3.96
    ##  8  1.91  4.06
    ##  9  2.66  3.94
    ## 10  3.12  3.48
    ## # ... with 90 more rows
…
